C&BS Co: scouring Twitter feedback
…
## 
## i Use `spec()` to retrieve the full column specification for this data.
## i Specify the column types or set `show_col_types = FALSE` to quiet this message.

tweet_matched <- keywords %>% 
  mutate(tweet = map(word, 
                     ~ with(tweets, 
                            tweet[grepl(.x, tweet, ignore.case = TRUE)]))) %>% 
  unnest(tweet) 

head(tweet_matched,90)

## # A tibble: 57 x 3
##    word      n tweet                                                            
##    <chr> <dbl> <chr>                                                            
##  1 soap      9 "Hey  o you suds are soap...I expected beer!"                    
##  2 soap      9 "WTF?! You\x92re Soap has just filled my bathroom full of bubble~
##  3 soap      9 "No where near enough bubbles from your Soap Bar  o. I wanted a ~
##  4 soap      9 "My wife has accused me of having an affair you morons. You\x92v~
##  5 soap      9 "I just wanted a bar of soap, not to smell like a brothel?! Do y~
##  6 soap      9 "Your soap has made my beard itchy, what the hell do you put in ~
##  7 soap      9 "I just bought my first  o soap! Because I'm worth it! Actually ~
##  8 soap      9 "o I hate liquid soap, I only like Bars"                         
##  9 bar       5 "No where near enough bubbles from your Soap Bar  o. I wanted a ~
## 10 bar       5 "My wife has accused me of having an affair you morons. You\x92v~
## # ... with 47 more rows
…
